1651, 1, "TERM. MERCADO", "TERM. SACOMÃ"
1465, 1, "TERM. BANDEIRA", "TERM. VARGINHA"
1450, 1, "TERM. BANDEIRA", "TERM. GUARAPIRANGA"
32772, 2, "TERM. PRINC. ISABEL", "TERM. STO. AMARO"
34694, 2, "PARAÍSO", "TERM. CAMPO LIMPO"
198, 1, "METRÔ STA. CRUZ", "TERM. JD. ÂNGELA"
