

======================================================
Line 1651:
===>Array:
[1410074, 1410075, 1410076, 3305795, 3305796, 3305797] 

======================================================
Line 1465:

Stops:
230009858,230009860, 230009861,230009864,230009866,230009867,230009868,230009870,230009829,230009962,230009960,230009957,810009956,810009954,810009951,810009950,810009948,810009945,810009943,810009941,810009963

7 paradas depois...

720015730,720015734,150015738,340015746,340015750,530015348,530015342,340015329,
JK, Av S Gabriel, 340015323,440015164,440015158,440015161,70016561,706325,         
9 de julho, 670016557

===>Arrays:

[670016557, 706325, 70016561, 440015161, 440015158, 440015164, 340015323, 340015329, 530015342, 530015348, 340015750, 340015746, 150015738, 720015734, 720015730]


7 paradas depois

[810009963, 810009941, 810009943, 810009945, 810009948, 810009950, 810009951, 810009954, 810009956, 230009957, 230009960, 230009962, 230009829, 230009870, 230009868, 230009867, 230009866, 230009864, 230009861, 230009860, 230009858]



=======================================================
Line 1450:

====>Array:
[670016557, 706325, 70016561, 440015161, 440015158, 440015164, 340015323, 340015329, 530015342, 530015348, 340015750, 340015746, 150015738, 720015734, 720015730]


=======================================================
Line 32772:

[260016860,260016858,260016856,260016855]
Muitas paradas depois (18)
[340015333,340015337,340015346,340015751,340015748,340015740,340015736,720015731]


=======================================================
Line 34694:

Ordem correta:
    440015007,440015005,
    440015005,440015003,
    440015003,630015010,
    630015011,Eldorado
    Eldorado, 120011357,
    120011357,120011361,
    120011361,120011363,
    120011363,550011365,
    550011365,120011367,
    120011367,960011368,
    960011368,960011373,


====>Array considerado:
[440015007,440015005, 440015003, 630015010,120011357,120011361,120011363,550011365,120011367,960011368,960011373]


========================================================
Line 198:


920015225,920015205,920015204,920015203,530015173,530015320,530015319,530015318,530015317
3 paradas depois
1506163
    
Vou desconsiderar essas pois são lá na frente:
13 paradas depois
4203717

3 paradas depois
4200946

=====>Array considerado:
[920015225,920015205,920015204,920015203,530015173,530015320,530015319,530015318,530015317,1506163] 



